<svg width="40" height="40" viewBox="0 0 40 40" fill="none" xmlns="http://www.w3.org/2000/svg">
<path d="M36.5333 12.0833V12.3L34.1 21.3C33.8124 22.3682 33.1787 23.3109 32.298 23.9804C31.4174 24.65 30.3396 25.0085 29.2333 25H16.4833C15.2317 25.0051 14.0236 24.5405 13.0978 23.6981C12.1721 22.8556 11.596 21.6966 11.4833 20.45L10.4 8.18334C10.3625 7.7678 10.1704 7.38146 9.86183 7.10065C9.55325 6.81984 9.15056 6.66498 8.73333 6.66667H5.11667C4.67464 6.66667 4.25072 6.49108 3.93816 6.17852C3.6256 5.86596 3.45 5.44203 3.45 5.00001C3.45 4.55798 3.6256 4.13406 3.93816 3.82149C4.25072 3.50893 4.67464 3.33334 5.11667 3.33334H8.73333C9.98501 3.32826 11.1931 3.79283 12.1188 4.63527C13.0446 5.47771 13.6207 6.63673 13.7333 7.88334V8.33334H33.2167C33.6918 8.32961 34.1622 8.4275 34.5964 8.62044C35.0306 8.81338 35.4185 9.09691 35.7342 9.45203C36.0498 9.80714 36.2859 10.2256 36.4266 10.6795C36.5673 11.1333 36.6094 11.6119 36.55 12.0833H36.5333Z" fill="#F8FDFE"/>
<path d="M15.1167 36.6667C17.4179 36.6667 19.2833 34.8012 19.2833 32.5C19.2833 30.1988 17.4179 28.3333 15.1167 28.3333C12.8155 28.3333 10.95 30.1988 10.95 32.5C10.95 34.8012 12.8155 36.6667 15.1167 36.6667Z" fill="#F8FDFE"/>
<path d="M28.45 36.6667C30.7512 36.6667 32.6167 34.8012 32.6167 32.5C32.6167 30.1988 30.7512 28.3333 28.45 28.3333C26.1488 28.3333 24.2833 30.1988 24.2833 32.5C24.2833 34.8012 26.1488 36.6667 28.45 36.6667Z" fill="#F8FDFE"/>
</svg>
